[
{"Product name": "Asus Vivo AiO V241FAK-BA082T AIO, AIO, I...", "Price": 772.2, "Picture href": null},
{"Product name": "Asus Vivo AiO V272UAK AIO, AIO, Intel Co...", "Price": null, "Picture href": null},
{"Product name": "Asus Zen AiO Z272SDK AIO, AIO, Intel Cor...", "Price": null, "Picture href": null},
{"Product name": "Dell 3020 i5-4570/8/500/W8P", "Price": 255.0, "Picture href": "https://ordi.eu/media/catalog/product/cache/1/small_image/200x/9df78eab33525d08d6e5fb8d27136e95/d/e/dell3020i5.jpg"},
{"Product name": "Dell Inspiron 3277 AIO, Intel Core i5, 2...", "Price": 550.44, "Picture href": null},
{"Product name": "Dell Inspiron 3277 AIO, Intel Core i5, 2...", "Price": 751.08, "Picture href": null},
{"Product name": "Dell Inspiron 3280 AIO, 21.5 \", Int...", "Price": 600.6, "Picture href": null},
{"Product name": "Dell Inspiron 3280 AIO, Intel Core i3, 2...", "Price": 718.08, "Picture href": null},
{"Product name": "Dell Inspiron 3477 AIO, Intel Core i5, 2...", "Price": 729.96, "Picture href": null},
{"Product name": "Dell Inspiron 3480 AIO, 23.8 \", Int...", "Price": 964.92, "Picture href": null},
{"Product name": "Dell Inspiron 3480 AIO, 23.8 \", Int...", "Price": 848.76, "Picture href": null},
{"Product name": "Dell Inspiron 3480 Touchscreen, AIO, 23....", "Price": 813.12, "Picture href": null},
{"Product name": "Dell Inspiron 3480 Touchscreen, AIO, 23....", "Price": 696.96, "Picture href": null},
{"Product name": "Dell Inspiron 5477 AIO, 23.8 \", Int...", "Price": null, "Picture href": null},
{"Product name": "Dell Inspiron 5680 Desktop, Tower, Intel...", "Price": null, "Picture href": null},
{"Product name": "Dell Inspiron 5680 Desktop, Tower, Intel...", "Price": null, "Picture href": null},
{"Product name": "Dell Inspiron 5680 Desktop, Tower, Intel...", "Price": null, "Picture href": null},
{"Product name": "Dell OptiPlex 3050 Desktop, SFF, Intel C...", "Price": 491.12, "Picture href": null},
{"Product name": "Dell OptiPlex 3050 Desktop, SFF, Intel C...", "Price": 636.77, "Picture href": null},
{"Product name": "Dell OptiPlex 3050 Desktop, Tower, Intel...", "Price": 618.02, "Picture href": null},
{"Product name": "Dell OptiPlex 3050 Desktop, Tower, Intel...", "Price": 588.1, "Picture href": null},
{"Product name": "Dell OptiPlex 3060 Desktop, Micro, Intel...", "Price": 724.76, "Picture href": null},
{"Product name": "Dell OptiPlex 3060 Desktop, Micro, Intel...", "Price": 717.55, "Picture href": null},
{"Product name": "Dell OptiPlex 3060 Desktop, Micro, Intel...", "Price": 546.61, "Picture href": null},
{"Product name": "Dell OptiPlex 3060 Desktop, Micro, Intel...", "Price": 717.55, "Picture href": null},
{"Product name": "Dell OptiPlex 3060 Desktop, Micro, Intel...", "Price": 546.61, "Picture href": null},
{"Product name": "Dell OptiPlex 3060 Desktop, Micro, Intel...", "Price": 652.3, "Picture href": "https://ordi.eu/media/catalog/product/cache/1/small_image/200x/9df78eab33525d08d6e5fb8d27136e95/230019.jpg"},
{"Product name": "Dell OptiPlex 3060 Desktop, Micro, Intel...", "Price": 603.08, "Picture href": null},
{"Product name": "Dell OptiPlex 3060 Desktop, Micro, Intel...", "Price": 436.23, "Picture href": "https://ordi.eu/media/catalog/product/cache/1/small_image/200x/9df78eab33525d08d6e5fb8d27136e95/230026.jpg"},
{"Product name": "Dell OptiPlex 3060 Desktop, Micro, Intel...", "Price": 490.83, "Picture href": null},
{"Product name": "Dell OptiPlex 3060 Desktop, Micro, Intel...", "Price": 786.15, "Picture href": null},
{"Product name": "Dell OptiPlex 3060 Desktop, Micro, Intel...", "Price": 531.38, "Picture href": null},
{"Product name": "Dell OptiPlex 3060 Desktop, Micro, Intel...", "Price": 577.51, "Picture href": null},
{"Product name": "Dell OptiPlex 3060 Desktop, Micro, Intel...", "Price": 438.13, "Picture href": "https://ordi.eu/media/catalog/product/cache/1/small_image/200x/9df78eab33525d08d6e5fb8d27136e95/229974.jpg"},
{"Product name": "Dell OptiPlex 3060 Desktop, SFF, Intel C...", "Price": 399.09, "Picture href": null},
{"Product name": "Dell OptiPlex 3060 Desktop, SFF, Intel C...", "Price": 497.43, "Picture href": "https://ordi.eu/media/catalog/product/cache/1/small_image/200x/9df78eab33525d08d6e5fb8d27136e95/230074.jpg"},
{"Product name": "Dell OptiPlex 3060 Desktop, SFF, Intel C...", "Price": 774.69, "Picture href": null},
{"Product name": "Dell OptiPlex 3060 Desktop, SFF, Intel C...", "Price": 800.65, "Picture href": null},
{"Product name": "Dell OptiPlex 3060 Desktop, SFF, Intel C...", "Price": 530.64, "Picture href": "https://ordi.eu/media/catalog/product/cache/1/small_image/200x/9df78eab33525d08d6e5fb8d27136e95/230580.jpg"},
{"Product name": "Dell OptiPlex 3060 Desktop, SFF, Intel C...", "Price": 851.02, "Picture href": null},
{"Product name": "Dell OptiPlex 3060 Desktop, SFF, Intel C...", "Price": 675.93, "Picture href": null},
{"Product name": "Dell OptiPlex 3060 Desktop, SFF, Intel C...", "Price": 625.34, "Picture href": null},
{"Product name": "Dell OptiPlex 3060 Desktop, Tower, Intel...", "Price": 529.61, "Picture href": "https://ordi.eu/media/catalog/product/cache/1/small_image/200x/9df78eab33525d08d6e5fb8d27136e95/230043.jpg"},
{"Product name": "Dell OptiPlex 3060 Desktop, Tower, Intel...", "Price": 572.21, "Picture href": null},
{"Product name": "Dell OptiPlex 3060 Desktop, Tower, Intel...", "Price": 670.51, "Picture href": "https://ordi.eu/media/catalog/product/cache/1/small_image/200x/9df78eab33525d08d6e5fb8d27136e95/230039.jpg"},
{"Product name": "Dell OptiPlex 3060 Desktop, Tower, Intel...", "Price": 514.96, "Picture href": null},
{"Product name": "Dell OptiPlex 3060 Desktop, Tower, Intel...", "Price": 773.34, "Picture href": null},
{"Product name": "Dell OptiPlex 3060 Desktop, Tower, Intel...", "Price": 637.15, "Picture href": null},
{"Product name": "Dell OptiPlex 5060 Desktop, Micro, Intel...", "Price": 683.31, "Picture href": "https://ordi.eu/media/catalog/product/cache/1/small_image/200x/9df78eab33525d08d6e5fb8d27136e95/230602.jpg"},
{"Product name": "Dell OptiPlex 5060 Desktop, Micro, Intel...", "Price": 465.62, "Picture href": "https://ordi.eu/media/catalog/product/cache/1/small_image/200x/9df78eab33525d08d6e5fb8d27136e95/230599.jpg"},
{"Product name": "Dell OptiPlex 5060 Desktop, Micro, Intel...", "Price": 589.13, "Picture href": null},
{"Product name": "Dell OptiPlex 5060 Desktop, SFF, Intel C...", "Price": null, "Picture href": null},
{"Product name": "Dell OptiPlex 5060 Desktop, SFF, Intel C...", "Price": 773.77, "Picture href": "https://ordi.eu/media/catalog/product/cache/1/small_image/200x/9df78eab33525d08d6e5fb8d27136e95/229996.jpg"},
{"Product name": "Dell OptiPlex 5060 Desktop, SFF, Intel C...", "Price": 917.73, "Picture href": "https://ordi.eu/media/catalog/product/cache/1/small_image/200x/9df78eab33525d08d6e5fb8d27136e95/229987.jpg"},
{"Product name": "Dell OptiPlex 5060 Desktop, SFF, Intel C...", "Price": null, "Picture href": null},
{"Product name": "Dell OptiPlex 5060 Desktop, Tower, Intel...", "Price": null, "Picture href": null},
{"Product name": "Dell OptiPlex 5060 Desktop, Tower, Intel...", "Price": 977.66, "Picture href": "https://ordi.eu/media/catalog/product/cache/1/small_image/200x/9df78eab33525d08d6e5fb8d27136e95/230010.jpg"},
{"Product name": "Dell OptiPlex 5060 Desktop, Tower, Intel...", "Price": 743.56, "Picture href": "https://ordi.eu/media/catalog/product/cache/1/small_image/200x/9df78eab33525d08d6e5fb8d27136e95/230638.jpg"},
{"Product name": "Dell OptiPlex 5060 Desktop, Tower, Intel...", "Price": 987.95, "Picture href": "https://ordi.eu/media/catalog/product/cache/1/small_image/200x/9df78eab33525d08d6e5fb8d27136e95/230577.jpg"},
{"Product name": "Dell OptiPlex 5060 Desktop, Tower, Intel...", "Price": 829.09, "Picture href": null},
{"Product name": "Dell OptiPlex 5060 Desktop, Tower, Intel...", "Price": 887.36, "Picture href": "https://ordi.eu/media/catalog/product/cache/1/small_image/200x/9df78eab33525d08d6e5fb8d27136e95/230011.jpg"},
{"Product name": "Dell OptiPlex 5060 Desktop, Tower, Intel...", "Price": 685.45, "Picture href": null},
{"Product name": "Dell OptiPlex 5060 Desktop, Tower, Intel...", "Price": 839.84, "Picture href": "https://ordi.eu/media/catalog/product/cache/1/small_image/200x/9df78eab33525d08d6e5fb8d27136e95/230578.jpg"},
{"Product name": "Dell OptiPlex 5060 Desktop, Tower, Intel...", "Price": 876.7, "Picture href": null},
{"Product name": "Dell OptiPlex 7060 Desktop, Tower, Intel...", "Price": null, "Picture href": "https://ordi.eu/media/catalog/product/cache/1/small_image/200x/9df78eab33525d08d6e5fb8d27136e95/233785.jpg"},
{"Product name": "Dell OptiPlex 7060 Desktop, Tower, Intel...", "Price": null, "Picture href": null},
{"Product name": "Dell OptiPlex 7060 Desktop, Tower, Intel...", "Price": 929.7, "Picture href": "https://ordi.eu/media/catalog/product/cache/1/small_image/200x/9df78eab33525d08d6e5fb8d27136e95/233788.jpg"},
{"Product name": "Dell OptiPlex 7060 Desktop, Tower, Intel...", "Price": null, "Picture href": "https://ordi.eu/media/catalog/product/cache/1/small_image/200x/9df78eab33525d08d6e5fb8d27136e95/233783.jpg"},
{"Product name": "Dell OptiPlex 7060 Desktop, Tower, Intel...", "Price": null, "Picture href": "https://ordi.eu/media/catalog/product/cache/1/small_image/200x/9df78eab33525d08d6e5fb8d27136e95/233789.jpg"},
{"Product name": "Dell Optiplex 7460 AIO, 23.8 \", Int...", "Price": null, "Picture href": null},
{"Product name": "Dell Optiplex 7460 AIO, 23.8 \", Int...", "Price": null, "Picture href": "https://ordi.eu/media/catalog/product/cache/1/small_image/200x/9df78eab33525d08d6e5fb8d27136e95/229985.jpg"},
{"Product name": "Dell Optiplex 7460 Touchscreen, AIO, 23....", "Price": null, "Picture href": null},
{"Product name": "Dell Optiplex 7460 Touchscreen, AIO, 23....", "Price": null, "Picture href": null},
{"Product name": "Dell OptiPlex 7760 AIO, 27 \", Intel...", "Price": null, "Picture href": "https://ordi.eu/media/catalog/product/cache/1/small_image/200x/9df78eab33525d08d6e5fb8d27136e95/229999.jpg"},
{"Product name": "Dell OptiPlex 7760 Touchscreen, AIO, 27 ...", "Price": null, "Picture href": "https://ordi.eu/media/catalog/product/cache/1/small_image/200x/9df78eab33525d08d6e5fb8d27136e95/229994.jpg"},
{"Product name": "Dell Optiplex 9020 SFF i5-4570 16GB 256G...", "Price": 337.06, "Picture href": null},
{"Product name": "Dell Precision 3430 Workstation, SFF, In...", "Price": null, "Picture href": null},
{"Product name": "Dell Precision 3620 Workstation, Tower, ...", "Price": null, "Picture href": null},
{"Product name": "Dell Precision 3620 Workstation, Tower, ...", "Price": null, "Picture href": null},
{"Product name": "Dell Precision 3630 Workstation, Tower, ...", "Price": null, "Picture href": null},
{"Product name": "Dell Precision 3630 Workstation, Tower, ...", "Price": null, "Picture href": null},
{"Product name": "Dell Precision 3630 Workstation, Tower, ...", "Price": null, "Picture href": null},
{"Product name": "Dell Precision 3630 Workstation, Tower, ...", "Price": null, "Picture href": null},
{"Product name": "Dell Precision 3630 Workstation, Tower, ...", "Price": null, "Picture href": null},
{"Product name": "Dell Precision 3630 Workstation, Tower, ...", "Price": null, "Picture href": null},
{"Product name": "Dell Precision 3630 Workstation, Tower, ...", "Price": null, "Picture href": null},
{"Product name": "Dell Precision 3630 Workstation, Tower, ...", "Price": null, "Picture href": null},
{"Product name": "Dell Precision 3630 Workstation, Tower, ...", "Price": null, "Picture href": null},
{"Product name": "Dell Precision 5530 Black, 15.6 \", ...", "Price": null, "Picture href": null},
{"Product name": "Dell Precision 5530 Black, 15.6 \", ...", "Price": null, "Picture href": null},
{"Product name": "Dell Precision 5530 Black, 15.6 \", ...", "Price": null, "Picture href": null},
{"Product name": "Dell Vostro 3470 Desktop, SFF, Intel Cor...", "Price": 527.0, "Picture href": null},
{"Product name": "Dell Vostro 3470 Desktop, SFF, Intel Cor...", "Price": 387.53, "Picture href": null},
{"Product name": "Dell Vostro 3470 Desktop, SFF, Intel Cor...", "Price": 478.18, "Picture href": null},
{"Product name": "Dell Vostro 3470 Desktop, SFF, Intel Cor...", "Price": 348.68, "Picture href": null},
{"Product name": "Dell Vostro 3470 Desktop, SFF, Intel Cor...", "Price": 397.49, "Picture href": null},
{"Product name": "Dell Vostro 3470 Desktop, SFF, Intel Cor...", "Price": 607.69, "Picture href": null},
{"Product name": "Dell Vostro 3670 Desktop, Tower, Intel C...", "Price": 840.8, "Picture href": null},
{"Product name": "Dell Vostro 3670 Desktop, Tower, Intel C...", "Price": 717.26, "Picture href": "https://ordi.eu/media/catalog/product/cache/1/small_image/200x/9df78eab33525d08d6e5fb8d27136e95/241785.jpg"},
{"Product name": "Dell Vostro 3670 Desktop, Tower, Intel C...", "Price": 667.46, "Picture href": null},
{"Product name": "Dell Vostro 3670 Desktop, Tower, Intel C...", "Price": 609.68, "Picture href": null},
{"Product name": "Dell Vostro 3670 Desktop, Tower, Intel C...", "Price": 734.2, "Picture href": null},
{"Product name": "Fujitsu E510 i3-3220/4/500/W8P", "Price": 119.0, "Picture href": "https://ordi.eu/media/catalog/product/cache/1/small_image/200x/9df78eab33525d08d6e5fb8d27136e95/f/u/fujitsue510i5.jpg"},
{"Product name": "Fujitsu E520 G3220/4/250/W8P", "Price": 89.0, "Picture href": "https://ordi.eu/media/catalog/product/cache/1/small_image/200x/9df78eab33525d08d6e5fb8d27136e95/f/u/fujitsue520.jpg"},
{"Product name": "Fujitsu E520 G3440/8/120/W8P", "Price": 122.0, "Picture href": "https://ordi.eu/media/catalog/product/cache/1/small_image/200x/9df78eab33525d08d6e5fb8d27136e95/9/9/9970-1198.jpg"},
{"Product name": "Fujitsu E520 i3-4130/8/128/W8P", "Price": 189.0, "Picture href": "https://ordi.eu/media/catalog/product/cache/1/small_image/200x/9df78eab33525d08d6e5fb8d27136e95/9/9/9970-1215.jpg"},
{"Product name": "Fujitsu Esprimo D538 E85+ i3", "Price": 619.0, "Picture href": "https://ordi.eu/media/catalog/product/cache/1/small_image/200x/9df78eab33525d08d6e5fb8d27136e95/d/5/d538.png"},
{"Product name": "Fujitsu Esprimo D538 E85+ i5", "Price": 655.0, "Picture href": "https://ordi.eu/media/catalog/product/cache/1/small_image/200x/9df78eab33525d08d6e5fb8d27136e95/9010-1176.jpg"},
{"Product name": "Fujitsu Esprimo D556/2/E85+", "Price": 569.0, "Picture href": "https://ordi.eu/media/catalog/product/cache/1/small_image/200x/9df78eab33525d08d6e5fb8d27136e95/9/0/9010-1133.jpg"},
{"Product name": "Fujitsu Esprimo D958 PC1 SSF", "Price": 899.0, "Picture href": null},
{"Product name": "Fujitsu Esprimo D958 PC2 SSF", "Price": 949.0, "Picture href": "https://ordi.eu/media/catalog/product/cache/1/small_image/200x/9df78eab33525d08d6e5fb8d27136e95/9010-1161.jpg"},
{"Product name": "Fujitsu Esprimo P958 PC2 TWR", "Price": 949.0, "Picture href": "https://ordi.eu/media/catalog/product/cache/1/small_image/200x/9df78eab33525d08d6e5fb8d27136e95/9010-1162.jpg"},
{"Product name": "Fujitsu Esprimo Q558 i5", "Price": 747.0, "Picture href": "https://ordi.eu/media/catalog/product/cache/1/small_image/200x/9df78eab33525d08d6e5fb8d27136e95/9010-1178.jpg"},
{"Product name": "Fujitsu Esprimo Q958 MINI", "Price": 909.0, "Picture href": "https://ordi.eu/media/catalog/product/cache/1/small_image/200x/9df78eab33525d08d6e5fb8d27136e95/9010-1186.jpg"},
{"Product name": "Fujitsu P520 G3440/8/250/W8P", "Price": 99.0, "Picture href": "https://ordi.eu/media/catalog/product/cache/1/small_image/200x/9df78eab33525d08d6e5fb8d27136e95/9/9/9970-1199.jpg"},
{"Product name": "HP - Thin client/Deskt Mini mounting bra...", "Price": 20.16, "Picture href": "https://ordi.eu/media/catalog/product/cache/1/small_image/200x/9df78eab33525d08d6e5fb8d27136e95/C3136014.jpg"},
{"Product name": "HP 600 G1 i5-4570/8/500/W7P", "Price": 226.0, "Picture href": "https://ordi.eu/media/catalog/product/cache/1/small_image/200x/9df78eab33525d08d6e5fb8d27136e95/h/p/hp600g1dvdrw.jpg"},
{"Product name": "HP 6300 G2020/4/250/DVD/W7P", "Price": 79.0, "Picture href": "https://ordi.eu/media/catalog/product/cache/1/small_image/200x/9df78eab33525d08d6e5fb8d27136e95/9/9/9970-1193_1.jpg"},
{"Product name": "HP 6300 i3-3220/8/500/W7P", "Price": 155.0, "Picture href": "https://ordi.eu/media/catalog/product/cache/1/small_image/200x/9df78eab33525d08d6e5fb8d27136e95/h/p/hp6300.jpg"},
{"Product name": "HP 705G1 A10-7800/8/500/D/W10", "Price": 125.0, "Picture href": "https://ordi.eu/media/catalog/product/cache/1/small_image/200x/9df78eab33525d08d6e5fb8d27136e95/h/p/hp705g1.jpg"},
{"Product name": "HP 8200 i5-2400/8/SSD120/W10P", "Price": 169.0, "Picture href": "https://ordi.eu/media/catalog/product/cache/1/small_image/200x/9df78eab33525d08d6e5fb8d27136e95/h/p/hp8200.jpg"},
{"Product name": "HP 8300 i5-3470/4/500/W8P", "Price": 167.0, "Picture href": "https://ordi.eu/media/catalog/product/cache/1/small_image/200x/9df78eab33525d08d6e5fb8d27136e95/9/9/9970-1219.jpeg"},
{"Product name": "HP 8300 i5-3470/8/SSD120/W10P", "Price": 199.0, "Picture href": "https://ordi.eu/media/catalog/product/cache/1/small_image/200x/9df78eab33525d08d6e5fb8d27136e95/h/p/hp8300.jpg"},
{"Product name": "HP CarePack 3y NextBusDay Onsite Desktop...", "Price": 16.05, "Picture href": null},
{"Product name": "HP G1 SFF A8-6500B/8/500/W8P", "Price": 99.0, "Picture href": "https://ordi.eu/media/catalog/product/cache/1/small_image/200x/9df78eab33525d08d6e5fb8d27136e95/9970-1186.jpg"},
{"Product name": "Lenovo Essential V530S Desktop, SFF, Int...", "Price": 649.51, "Picture href": null},
{"Product name": "Lenovo IdeaCentre 720-18ASU Desktop, Sma...", "Price": 444.84, "Picture href": null},
{"Product name": "Lenovo Legion T530 Intel Black, 802.11ac...", "Price": 684.43, "Picture href": null},
{"Product name": "Lenovo M93p i5-4570/8/500/W8P", "Price": 249.0, "Picture href": "https://ordi.eu/media/catalog/product/cache/1/small_image/200x/9df78eab33525d08d6e5fb8d27136e95/l/e/lenovom93pmatx.jpg"},
{"Product name": "Lenovo ThinkCentre M625q Desktop, Tiny, ...", "Price": 495.0, "Picture href": null},
{"Product name": "Lenovo ThinkCentre M710t Desktop, Tower,...", "Price": 852.51, "Picture href": "https://ordi.eu/media/catalog/product/cache/1/small_image/200x/9df78eab33525d08d6e5fb8d27136e95/199625.jpg"},
{"Product name": "Lenovo ThinkCentre M720 Desktop, SFF, In...", "Price": 875.16, "Picture href": "https://ordi.eu/media/catalog/product/cache/1/small_image/200x/9df78eab33525d08d6e5fb8d27136e95/230973.jpg"},
{"Product name": "Lenovo ThinkCentre M720 Desktop, SFF, In...", "Price": null, "Picture href": "https://ordi.eu/media/catalog/product/cache/1/small_image/200x/9df78eab33525d08d6e5fb8d27136e95/235704.jpg"},
{"Product name": "Lenovo ThinkCentre M720 Desktop, SFF, In...", "Price": 875.16, "Picture href": "https://ordi.eu/media/catalog/product/cache/1/small_image/200x/9df78eab33525d08d6e5fb8d27136e95/230974.jpg"},
{"Product name": "Lenovo ThinkCentre M720 Desktop, SFF, In...", "Price": null, "Picture href": null},
{"Product name": "Lenovo ThinkCentre M720 Desktop, Tiny, I...", "Price": 924.65, "Picture href": "https://ordi.eu/media/catalog/product/cache/1/small_image/200x/9df78eab33525d08d6e5fb8d27136e95/244601.jpg"},
{"Product name": "Lenovo ThinkCentre M720 Desktop, Tiny, I...", "Price": 771.21, "Picture href": "https://ordi.eu/media/catalog/product/cache/1/small_image/200x/9df78eab33525d08d6e5fb8d27136e95/242551.jpg"},
{"Product name": "Lenovo ThinkCentre M720q Desktop, Tiny, ...", "Price": 870.32, "Picture href": "https://ordi.eu/media/catalog/product/cache/1/small_image/200x/9df78eab33525d08d6e5fb8d27136e95/236485.jpg"},
{"Product name": "Lenovo ThinkCentre M720q Desktop, Tiny, ...", "Price": 848.23, "Picture href": null},
{"Product name": "Lenovo ThinkCentre M720q Desktop, Tiny, ...", "Price": 861.7, "Picture href": null},
{"Product name": "Lenovo ThinkCentre M720q Desktop, Tiny, ...", "Price": 767.45, "Picture href": null},
{"Product name": "Lenovo ThinkCentre M910q", "Price": null, "Picture href": "https://ordi.eu/media/catalog/product/cache/1/small_image/200x/9df78eab33525d08d6e5fb8d27136e95/9010-1149.jpg"},
{"Product name": "Lenovo ThinkCentre M920q", "Price": null, "Picture href": null},
{"Product name": "Lenovo ThinkCentre V520s Desktop, SFF, I...", "Price": 191.64, "Picture href": null},
{"Product name": "Lenovo V530 Touchscreen, AIO, 23.8 &quot...", "Price": null, "Picture href": null},
{"Product name": "Lenovo V530 Touchscreen, AIO, 23.8 &quot...", "Price": null, "Picture href": "https://ordi.eu/media/catalog/product/cache/1/small_image/200x/9df78eab33525d08d6e5fb8d27136e95/230880.jpg"},
{"Product name": "Lenovo V530S Desktop, SFF, Intel Core i3...", "Price": 652.61, "Picture href": null},
{"Product name": "Lenovo V530S Desktop, SFF, Intel Core i3...", "Price": 588.52, "Picture href": null},
{"Product name": "Lenovo V530S Desktop, SFF, Intel Core i3...", "Price": 350.09, "Picture href": null},
{"Product name": "Lenovo V530S Desktop, SFF, Intel Core i5...", "Price": 771.29, "Picture href": "https://ordi.eu/media/catalog/product/cache/1/small_image/200x/9df78eab33525d08d6e5fb8d27136e95/230879.jpg"},
{"Product name": "Lenovo V530S Desktop, SFF, Intel Core i5...", "Price": 767.45, "Picture href": null},
{"Product name": "Lenovo V530S Desktop, SFF, Intel Pentium...", "Price": 273.32, "Picture href": null},
{"Product name": "Mac mini Intel Core i3 3.6GHz/8GB/128SSD...", "Price": 907.07, "Picture href": null},
{"Product name": "Mac mini Intel Core i5 3.0GHz/8GB/256SSD...", "Price": null, "Picture href": null},
{"Product name": "Mac mini Intel Core i7 3.2GHz/16GB/256SS...", "Price": null, "Picture href": null},
{"Product name": "Ordi Classic 8 gen", "Price": 480.0, "Picture href": "https://ordi.eu/media/catalog/product/cache/1/small_image/200x/9df78eab33525d08d6e5fb8d27136e95/f/c/fc-b05-edit_id_kb.jpg"},
{"Product name": "Ordi Disco 8 Gen + W10", "Price": 295.0, "Picture href": "https://ordi.eu/media/catalog/product/cache/1/small_image/200x/9df78eab33525d08d6e5fb8d27136e95/9/9/9910-1926_1.jpg"},
{"Product name": "Ordi Electro 8gen", "Price": 290.0, "Picture href": "https://ordi.eu/media/catalog/product/cache/1/small_image/200x/9df78eab33525d08d6e5fb8d27136e95/9/9/9910-1943.jpg"},
{"Product name": "Ordi Metal 8gen", "Price": 380.0, "Picture href": "https://ordi.eu/media/catalog/product/cache/1/small_image/200x/9df78eab33525d08d6e5fb8d27136e95/9/9/9910-1928.jpg"},
{"Product name": "Ordi MiNi 1S + Win 10e", "Price": 239.0, "Picture href": "https://ordi.eu/media/catalog/product/cache/1/small_image/200x/9df78eab33525d08d6e5fb8d27136e95/m/i/mini1s.jpg"},
{"Product name": "Ordi Mini i3S 8 Gen", "Price": 475.0, "Picture href": "https://ordi.eu/media/catalog/product/cache/1/small_image/200x/9df78eab33525d08d6e5fb8d27136e95/9/9/9915-1034.jpg"},
{"Product name": "Ordi Ping + W10", "Price": 225.0, "Picture href": "https://ordi.eu/media/catalog/product/cache/1/small_image/200x/9df78eab33525d08d6e5fb8d27136e95/_/3/_31a8376_1.jpg"},
{"Product name": "Ordi PRO 410mini", "Price": 360.0, "Picture href": "https://ordi.eu/media/catalog/product/cache/1/small_image/200x/9df78eab33525d08d6e5fb8d27136e95/9/9/9940-1093_3.jpg"},
{"Product name": "Ordi PRO 420 8 Gen", "Price": 440.0, "Picture href": "https://ordi.eu/media/catalog/product/cache/1/small_image/200x/9df78eab33525d08d6e5fb8d27136e95/f/c/fc-b05_v-1.jpg"},
{"Product name": "Ordi PRO 420d 8 Gen", "Price": 420.0, "Picture href": "https://ordi.eu/media/catalog/product/cache/1/small_image/200x/9df78eab33525d08d6e5fb8d27136e95/p/r/pro530d.jpg"},
{"Product name": "Ordi PRO 530 8 Gen", "Price": 630.0, "Picture href": "https://ordi.eu/media/catalog/product/cache/1/small_image/200x/9df78eab33525d08d6e5fb8d27136e95/f/c/fc-b05_v-1_1.jpg"},
{"Product name": "Ordi PRO 530d 8 Gen", "Price": 670.0, "Picture href": "https://ordi.eu/media/catalog/product/cache/1/small_image/200x/9df78eab33525d08d6e5fb8d27136e95/p/r/pro530d_1.jpg"},
{"Product name": "Ordi PRO 730vd 8 Gen", "Price": 850.0, "Picture href": "https://ordi.eu/media/catalog/product/cache/1/small_image/200x/9df78eab33525d08d6e5fb8d27136e95/i/m/img_0735_1.jpg"},
{"Product name": "Ordi Rock 8gen", "Price": null, "Picture href": "https://ordi.eu/media/catalog/product/cache/1/small_image/200x/9df78eab33525d08d6e5fb8d27136e95/r/o/rockdeepcooltesseracpun.jpg"},
{"Product name": "Ordi Salsa 9gen", "Price": 899.0, "Picture href": "https://ordi.eu/media/catalog/product/cache/1/small_image/200x/9df78eab33525d08d6e5fb8d27136e95/s/a/salsa9gen3.jpg"},
{"Product name": "Ordi Samba 8 gen", "Price": 770.0, "Picture href": "https://ordi.eu/media/catalog/product/cache/1/small_image/200x/9df78eab33525d08d6e5fb8d27136e95/9/9/9910-1913.jpg"},
{"Product name": "Ordi Sprint R3", "Price": 330.0, "Picture href": "https://ordi.eu/media/catalog/product/cache/1/small_image/200x/9df78eab33525d08d6e5fb8d27136e95/9/9/9910-1917_1.jpg"},
{"Product name": "Ordi Spurt + W10", "Price": 290.0, "Picture href": "https://ordi.eu/media/catalog/product/cache/1/small_image/200x/9df78eab33525d08d6e5fb8d27136e95/s/p/spurtw10v.jpg"},
{"Product name": "Ordi Swing 8 gen", "Price": 510.0, "Picture href": "https://ordi.eu/media/catalog/product/cache/1/small_image/200x/9df78eab33525d08d6e5fb8d27136e95/9/9/9910-1915_1.jpg"},
{"Product name": "Ordi Tornado R", "Price": 420.0, "Picture href": "https://ordi.eu/media/catalog/product/cache/1/small_image/200x/9df78eab33525d08d6e5fb8d27136e95/9/9/9910-1950.jpg"},
{"Product name": "Ordi Twister R", "Price": 850.0, "Picture href": "https://ordi.eu/media/catalog/product/cache/1/small_image/200x/9df78eab33525d08d6e5fb8d27136e95/t/w/twistertesseractpunidga.jpg"},
{"Product name": "SALE OUT. Asus ZN242GK 1E 8300H/8G/1SR5/...", "Price": null, "Picture href": null},
{"Product name": "SALE OUT. Dell OptiPlex 5050 SFF i5-6400...", "Price": 561.4, "Picture href": null},
{"Product name": "SALE OUT. Dell OptiPlex 5260 AIO i5-8500...", "Price": 914.01, "Picture href": null},
{"Product name": "T420 2Core GX-209JA/2GB RAM/16GB/AMD Rad...", "Price": 194.88, "Picture href": "https://ordi.eu/media/catalog/product/cache/1/small_image/200x/9df78eab33525d08d6e5fb8d27136e95/C0043420.jpg"},
{"Product name": "t530 / 32GB M.2 Flash / 4GB (1x4GB) DDR4...", "Price": 383.04, "Picture href": null},
{"Product name": "t530 / 8GB M.2 Flash Memory / 4GB (1x4GB...", "Price": 309.12, "Picture href": null},
{"Product name": "T620 PLUS 4Core GX-415GA/4GB RAM/16GB SS...", "Price": 387.28, "Picture href": "https://ordi.eu/media/catalog/product/cache/1/small_image/200x/9df78eab33525d08d6e5fb8d27136e95/C0488882.jpg"},
{"Product name": "t630 / 8 GB M.2 Flash Memory / 4GB (1x4G...", "Price": 342.86, "Picture href": null},
{"Product name": "t630/32 GB M.2 Flash Memory/4GB (1x4GB) ...", "Price": 459.43, "Picture href": null}
]